dataset,function,timer,result
ints,loop,time,0.011600971221923828
ints,loop,time,0.009762048721313477
ints,loop,time,0.008068561553955078
ints,loop,time,0.008263349533081055
ints,loop,time,0.007745027542114258
ints,loop,time,0.007451772689819336
ints,loop,time,0.007538318634033203
ints,loop,time,0.007414579391479492
ints,loop,time,0.01045370101928711
ints,loop,time,0.008159875869750977
ints,loop,time,0.007890939712524414
ints,loop,time,0.0074651241302490234
ints,loop,time,0.007668495178222656
ints,loop,time,0.007363319396972656
ints,loop,time,0.0075528621673583984
ints,loop,time,0.007138490676879883
ints,loop,time,0.007338047027587891
ints,loop,time,0.0076634883880615234
ints,loop,time,0.007258176803588867
ints,loop,time,0.007941484451293945
ints,loop,time,0.007392406463623047
ints,loop,time,0.007491111755371094
ints,loop,time,0.00718998908996582
ints,loop,time,0.007341623306274414
ints,loop,time,0.007290840148925781
ints,loop,time,0.007204532623291016
ints,loop,time,0.0071184635162353516
ints,loop,time,0.007296562194824219
ints,loop,time,0.007249593734741211
ints,loop,time,0.0072515010833740234
ints,loop,time,0.007760047912597656
ints,loop,time,0.007412433624267578
ints,loop,time,0.0073969364166259766
ints,loop,time,0.0073659420013427734
ints,loop,time,0.0073468685150146484
ints,loop,time,0.0076444149017333984
ints,loop,time,0.007895231246948242
ints,loop,time,0.007267951965332031
ints,loop,time,0.007319450378417969
ints,loop,time,0.0072383880615234375
ints,loop,time,0.007433652877807617
ints,loop,time,0.007211923599243164
ints,loop,time,0.007447242736816406
ints,loop,time,0.0072896480560302734
ints,loop,time,0.007420778274536133
ints,loop,time,0.007237911224365234
ints,loop,time,0.007457733154296875
ints,loop,time,0.007432222366333008
ints,loop,time,0.007375955581665039
ints,loop,time,0.007403373718261719
ints,loop,time,0.00745391845703125
ints,loop,time,0.007485866546630859
ints,loop,time,0.007459878921508789
ints,loop,time,0.007451772689819336
ints,loop,time,0.007235288619995117
ints,loop,time,0.007328510284423828
ints,loop,time,0.007745265960693359
ints,loop,time,0.007361650466918945
ints,loop,time,0.007542848587036133
ints,loop,time,0.007683992385864258
ints,loop,time,0.0076367855072021484
ints,loop,time,0.007621288299560547
ints,loop,time,0.007627010345458984
ints,loop,time,0.007329702377319336
ints,loop,time,0.0075206756591796875
ints,loop,time,0.007283210754394531
ints,loop,time,0.0074498653411865234
ints,loop,time,0.007498264312744141
ints,loop,time,0.007429599761962891
ints,loop,time,0.007334709167480469
ints,loop,time,0.007618904113769531
ints,loop,time,0.0072634220123291016
ints,loop,time,0.0076446533203125
ints,loop,time,0.007285118103027344
ints,loop,time,0.007506847381591797
ints,loop,time,0.007359504699707031
ints,loop,time,0.007288455963134766
ints,loop,time,0.0076274871826171875
ints,loop,time,0.007691144943237305
ints,loop,time,0.00767207145690918
ints,loop,time,0.007502079010009766
ints,loop,time,0.007537364959716797
ints,loop,time,0.007330656051635742
ints,loop,time,0.007628917694091797
ints,loop,time,0.007718801498413086
ints,loop,time,0.0076634883880615234
ints,loop,time,0.0072438716888427734
ints,loop,time,0.008603572845458984
ints,loop,time,0.00785374641418457
ints,loop,time,0.007593631744384766
ints,loop,time,0.007361888885498047
ints,loop,time,0.007252216339111328
ints,loop,time,0.007227182388305664
ints,loop,time,0.0072422027587890625
ints,loop,time,0.007223844528198242
ints,loop,time,0.0070688724517822266
ints,loop,time,0.007275819778442383
ints,loop,time,0.007339954376220703
ints,loop,time,0.0073032379150390625
ints,loop,time,0.0072786808013916016
ints,loop,process_time,0.007592015000000174
ints,loop,process_time,0.007565512999999413
ints,loop,process_time,0.008017273000000102
ints,loop,process_time,0.01058052299999801
ints,loop,process_time,0.007944031000000962
ints,loop,process_time,0.008122164999999626
ints,loop,process_time,0.007859046000000092
ints,loop,process_time,0.008352750000000242
ints,loop,process_time,0.007915839999999008
ints,loop,process_time,0.007934287999997736
ints,loop,process_time,0.008219625999998925
ints,loop,process_time,0.008679562000001084
ints,loop,process_time,0.009318086000000392
ints,loop,process_time,0.009750005000000783
ints,loop,process_time,0.007812726000000936
ints,loop,process_time,0.007525309999998342
ints,loop,process_time,0.007407852000000048
ints,loop,process_time,0.007647862999998978
ints,loop,process_time,0.007532122000000641
ints,loop,process_time,0.007648153999998186
ints,loop,process_time,0.007379543000002542
ints,loop,process_time,0.007640168999998309
ints,loop,process_time,0.008066969999998008
ints,loop,process_time,0.007436205999997725
ints,loop,process_time,0.007436337999997988
ints,loop,process_time,0.007752082999999743
ints,loop,process_time,0.008369708000000031
ints,loop,process_time,0.007466766000000291
ints,loop,process_time,0.007477575999999431
ints,loop,process_time,0.007739181000001594
ints,loop,process_time,0.007400562999997362
ints,loop,process_time,0.007768049999999249
ints,loop,process_time,0.008018546999998932
ints,loop,process_time,0.007605373000000526
ints,loop,process_time,0.0073742360000004226
ints,loop,process_time,0.007430551999998869
ints,loop,process_time,0.007456243000000029
ints,loop,process_time,0.007649942000000465
ints,loop,process_time,0.00788709700000112
ints,loop,process_time,0.007501213999997702
ints,loop,process_time,0.007597739999997799
ints,loop,process_time,0.007413715999998516
ints,loop,process_time,0.0075566120000019055
ints,loop,process_time,0.007187958999999466
ints,loop,process_time,0.007596805000002149
ints,loop,process_time,0.0072404010000006735
ints,loop,process_time,0.007354771999999343
ints,loop,process_time,0.007533919000000111
ints,loop,process_time,0.007415896999997784
ints,loop,process_time,0.007847695999998905
ints,loop,process_time,0.007524543000002382
ints,loop,process_time,0.008066056000000543
ints,loop,process_time,0.007780603000000497
ints,loop,process_time,0.007612571999999318
ints,loop,process_time,0.0074286540000017
ints,loop,process_time,0.0072007589999998345
ints,loop,process_time,0.0073043320000003575
ints,loop,process_time,0.00742133799999678
ints,loop,process_time,0.007204884000000078
ints,loop,process_time,0.007227144000001573
ints,loop,process_time,0.007165568000001343
ints,loop,process_time,0.007309303999999628
ints,loop,process_time,0.007335833999999153
ints,loop,process_time,0.007447577000000649
ints,loop,process_time,0.007350653999999679
ints,loop,process_time,0.0075636689999996065
ints,loop,process_time,0.007395235000000611
ints,loop,process_time,0.00731652599999677
ints,loop,process_time,0.00719970000000103
ints,loop,process_time,0.007317471000000353
ints,loop,process_time,0.007298590999997856
ints,loop,process_time,0.007307425999997008
ints,loop,process_time,0.007313313000000932
ints,loop,process_time,0.007422112000000425
ints,loop,process_time,0.007242735999998473
ints,loop,process_time,0.007139941999998456
ints,loop,process_time,0.0076370610000005
ints,loop,process_time,0.007389450999998104
ints,loop,process_time,0.007524829000001176
ints,loop,process_time,0.007870970000002586
ints,loop,process_time,0.007525617999998957
ints,loop,process_time,0.007546934999997035
ints,loop,process_time,0.007297379000000603
ints,loop,process_time,0.0074865029999990895
ints,loop,process_time,0.007508385999997813
ints,loop,process_time,0.007917321000000754
ints,loop,process_time,0.0073082619999986775
ints,loop,process_time,0.0076480140000008134
ints,loop,process_time,0.0072424460000029
ints,loop,process_time,0.007468763999998629
ints,loop,process_time,0.007322502999997482
ints,loop,process_time,0.008016068999999959
ints,loop,process_time,0.007484711000000033
ints,loop,process_time,0.007216369999998307
ints,loop,process_time,0.007402348999999475
ints,loop,process_time,0.007999451999999962
ints,loop,process_time,0.007758158000001458
ints,loop,process_time,0.007887764999999547
ints,loop,process_time,0.010034805000000091
ints,loop,process_time,0.008074424000000135
ints,loop,perf_counter,0.008439664001343772
ints,loop,perf_counter,0.008833511004922912
ints,loop,perf_counter,0.009966504003386945
ints,loop,perf_counter,0.008496338996337727
ints,loop,perf_counter,0.008345151989487931
ints,loop,perf_counter,0.008331463002832606
ints,loop,perf_counter,0.008414840005571023
ints,loop,perf_counter,0.008560529007809237
ints,loop,perf_counter,0.007754127000225708
ints,loop,perf_counter,0.00965556499431841
ints,loop,perf_counter,0.008764932004851289
ints,loop,perf_counter,0.009431088998098858
ints,loop,perf_counter,0.007920578005723655
ints,loop,perf_counter,0.007972581006470136
ints,loop,perf_counter,0.00797038599557709
ints,loop,perf_counter,0.008251574006862938
ints,loop,perf_counter,0.007798922000802122
ints,loop,perf_counter,0.007882303994847462
ints,loop,perf_counter,0.00771384900144767
ints,loop,perf_counter,0.007948365993797779
ints,loop,perf_counter,0.007471935998182744
ints,loop,perf_counter,0.007860716999857686
ints,loop,perf_counter,0.007290973997442052
ints,loop,perf_counter,0.007830599002772942
ints,loop,perf_counter,0.007176876999437809
ints,loop,perf_counter,0.008118868005112745
ints,loop,perf_counter,0.0076788259902969
ints,loop,perf_counter,0.008055387006606907
ints,loop,perf_counter,0.007496360005461611
ints,loop,perf_counter,0.007594048991450109
ints,loop,perf_counter,0.007856440992327407
ints,loop,perf_counter,0.007468076990335248
ints,loop,perf_counter,0.00885517599817831
ints,loop,perf_counter,0.007230953007820062
ints,loop,perf_counter,0.007746653005597182
ints,loop,perf_counter,0.007225097011541948
ints,loop,perf_counter,0.007560461002867669
ints,loop,perf_counter,0.007346074999077246
ints,loop,perf_counter,0.007847469008993357
ints,loop,perf_counter,0.0073071190126938745
ints,loop,perf_counter,0.007990309997694567
ints,loop,perf_counter,0.007652257991139777
ints,loop,perf_counter,0.007452903999364935
ints,loop,perf_counter,0.007622382996487431
ints,loop,perf_counter,0.007137359003536403
ints,loop,perf_counter,0.007846002001315355
ints,loop,perf_counter,0.007248156995046884
ints,loop,perf_counter,0.007815094999386929
ints,loop,perf_counter,0.007255167001858354
ints,loop,perf_counter,0.007709053999860771
ints,loop,perf_counter,0.007584385995869525
ints,loop,perf_counter,0.00808810100716073
ints,loop,perf_counter,0.007506629000999965
ints,loop,perf_counter,0.00779459900513757
ints,loop,perf_counter,0.007549978006863967
ints,loop,perf_counter,0.007346343991230242
ints,loop,perf_counter,0.007575520008685999
ints,loop,perf_counter,0.00719521900464315
ints,loop,perf_counter,0.007768486000713892
ints,loop,perf_counter,0.007320625998545438
ints,loop,perf_counter,0.007697934997850098
ints,loop,perf_counter,0.007900701995822601
ints,loop,perf_counter,0.00819521100493148
ints,loop,perf_counter,0.007250264010508545
ints,loop,perf_counter,0.007967728990479372
ints,loop,perf_counter,0.007352522006840445
ints,loop,perf_counter,0.008177833995432593
ints,loop,perf_counter,0.007462381006916985
ints,loop,perf_counter,0.007634876994416118
ints,loop,perf_counter,0.0075115950021427125
ints,loop,perf_counter,0.007604259008076042
ints,loop,perf_counter,0.007673735002754256
ints,loop,perf_counter,0.007239010010380298
ints,loop,perf_counter,0.007753923011478037
ints,loop,perf_counter,0.007329950996791013
ints,loop,perf_counter,0.00762028299504891
ints,loop,perf_counter,0.007384370008367114
ints,loop,perf_counter,0.008594334009103477
ints,loop,perf_counter,0.007339971998590045
ints,loop,perf_counter,0.008256332002929412
ints,loop,perf_counter,0.007348749000811949
ints,loop,perf_counter,0.007878749005612917
ints,loop,perf_counter,0.007597428993904032
ints,loop,perf_counter,0.007368595004663803
ints,loop,perf_counter,0.00821092800470069
ints,loop,perf_counter,0.0074795909895328805
ints,loop,perf_counter,0.0077511650015367195
ints,loop,perf_counter,0.007199521001894027
ints,loop,perf_counter,0.0076550239900825545
ints,loop,perf_counter,0.007259616992087103
ints,loop,perf_counter,0.007237351004732773
ints,loop,perf_counter,0.007305560997338034
ints,loop,perf_counter,0.007716886990237981
ints,loop,perf_counter,0.0075333290005801246
ints,loop,perf_counter,0.007153778002248146
ints,loop,perf_counter,0.007323130004806444
ints,loop,perf_counter,0.00722631900862325
ints,loop,perf_counter,0.007303389007574879
ints,loop,perf_counter,0.007279087003553286
ints,loop,perf_counter,0.0074285919981775805
ints,comprehension,time,0.012923002243041992
ints,comprehension,time,0.013090848922729492
ints,comprehension,time,0.012726306915283203
ints,comprehension,time,0.012703418731689453
ints,comprehension,time,0.012876749038696289
ints,comprehension,time,0.01250147819519043
ints,comprehension,time,0.012659549713134766
ints,comprehension,time,0.012706995010375977
ints,comprehension,time,0.012595176696777344
ints,comprehension,time,0.012542009353637695
ints,comprehension,time,0.012851476669311523
ints,comprehension,time,0.013224363327026367
ints,comprehension,time,0.012598514556884766
ints,comprehension,time,0.012451410293579102
ints,comprehension,time,0.012626886367797852
ints,comprehension,time,0.01268148422241211
ints,comprehension,time,0.012759208679199219
ints,comprehension,time,0.013130426406860352
ints,comprehension,time,0.013444185256958008
ints,comprehension,time,0.013584136962890625
ints,comprehension,time,0.013758420944213867
ints,comprehension,time,0.012886762619018555
ints,comprehension,time,0.012840747833251953
ints,comprehension,time,0.012763738632202148
ints,comprehension,time,0.012828350067138672
ints,comprehension,time,0.012987375259399414
ints,comprehension,time,0.014104127883911133
ints,comprehension,time,0.013122081756591797
ints,comprehension,time,0.012847185134887695
ints,comprehension,time,0.01292729377746582
ints,comprehension,time,0.012767791748046875
ints,comprehension,time,0.012846708297729492
ints,comprehension,time,0.012719154357910156
ints,comprehension,time,0.013032674789428711
ints,comprehension,time,0.012933731079101562
ints,comprehension,time,0.012951374053955078
ints,comprehension,time,0.012642860412597656
ints,comprehension,time,0.012801170349121094
ints,comprehension,time,0.01284646987915039
ints,comprehension,time,0.012820959091186523
ints,comprehension,time,0.012938261032104492
ints,comprehension,time,0.013189315795898438
ints,comprehension,time,0.012951374053955078
ints,comprehension,time,0.012949943542480469
ints,comprehension,time,0.012784719467163086
ints,comprehension,time,0.012974023818969727
ints,comprehension,time,0.012778282165527344
ints,comprehension,time,0.012702465057373047
ints,comprehension,time,0.012733221054077148
ints,comprehension,time,0.01292276382446289
ints,comprehension,time,0.013095855712890625
ints,comprehension,time,0.012910842895507812
ints,comprehension,time,0.01252293586730957
ints,comprehension,time,0.012934446334838867
ints,comprehension,time,0.013265132904052734
ints,comprehension,time,0.016387939453125
ints,comprehension,time,0.014321565628051758
ints,comprehension,time,0.013428449630737305
ints,comprehension,time,0.013197183609008789
ints,comprehension,time,0.012991189956665039
ints,comprehension,time,0.012686967849731445
ints,comprehension,time,0.012631416320800781
ints,comprehension,time,0.012667179107666016
ints,comprehension,time,0.012966394424438477
ints,comprehension,time,0.012876272201538086
ints,comprehension,time,0.012769222259521484
ints,comprehension,time,0.013151168823242188
ints,comprehension,time,0.012797355651855469
ints,comprehension,time,0.012768745422363281
ints,comprehension,time,0.012760400772094727
ints,comprehension,time,0.013248205184936523
ints,comprehension,time,0.012677431106567383
ints,comprehension,time,0.013142585754394531
ints,comprehension,time,0.012882232666015625
ints,comprehension,time,0.012782573699951172
ints,comprehension,time,0.012771368026733398
ints,comprehension,time,0.012652158737182617
ints,comprehension,time,0.012573957443237305
ints,comprehension,time,0.01291799545288086
ints,comprehension,time,0.012840509414672852
ints,comprehension,time,0.012673616409301758
ints,comprehension,time,0.012826919555664062
ints,comprehension,time,0.012763261795043945
ints,comprehension,time,0.012590646743774414
ints,comprehension,time,0.012678861618041992
ints,comprehension,time,0.012634992599487305
ints,comprehension,time,0.01271510124206543
ints,comprehension,time,0.012909650802612305
ints,comprehension,time,0.012996673583984375
ints,comprehension,time,0.015317678451538086
ints,comprehension,time,0.013964653015136719
ints,comprehension,time,0.013763904571533203
ints,comprehension,time,0.013957023620605469
ints,comprehension,time,0.016294002532958984
ints,comprehension,time,0.016794204711914062
ints,comprehension,time,0.014124631881713867
ints,comprehension,time,0.013304948806762695
ints,comprehension,time,0.013135910034179688
ints,comprehension,time,0.013019323348999023
ints,comprehension,time,0.01268458366394043
ints,comprehension,process_time,0.014155588999997804
ints,comprehension,process_time,0.01382233699999702
ints,comprehension,process_time,0.013257234999997536
ints,comprehension,process_time,0.013206659999998038
ints,comprehension,process_time,0.013887861999997142
ints,comprehension,process_time,0.013775822999999576
ints,comprehension,process_time,0.012888147000001737
ints,comprehension,process_time,0.01289000499999915
ints,comprehension,process_time,0.013332470999998236
ints,comprehension,process_time,0.013244370999998978
ints,comprehension,process_time,0.013378267000000221
ints,comprehension,process_time,0.012517142000000092
ints,comprehension,process_time,0.013392572000000769
ints,comprehension,process_time,0.013174269000000294
ints,comprehension,process_time,0.013077698000000026
ints,comprehension,process_time,0.013279348000001079
ints,comprehension,process_time,0.01300297499999914
ints,comprehension,process_time,0.01372255900000141
ints,comprehension,process_time,0.01381036899999799
ints,comprehension,process_time,0.014016452999999984
ints,comprehension,process_time,0.013320477999997138
ints,comprehension,process_time,0.013202959000000902
ints,comprehension,process_time,0.0128310280000008
ints,comprehension,process_time,0.013162619999999237
ints,comprehension,process_time,0.013674683000001409
ints,comprehension,process_time,0.01325296999999992
ints,comprehension,process_time,0.01323080400000265
ints,comprehension,process_time,0.012829457999998795
ints,comprehension,process_time,0.013037457999999447
ints,comprehension,process_time,0.013190498000000161
ints,comprehension,process_time,0.013269836999999285
ints,comprehension,process_time,0.01335108500000004
ints,comprehension,process_time,0.012753191999998137
ints,comprehension,process_time,0.013271009000000333
ints,comprehension,process_time,0.013393597000000312
ints,comprehension,process_time,0.013157252999999258
ints,comprehension,process_time,0.012650479999997799
ints,comprehension,process_time,0.013089096999998162
ints,comprehension,process_time,0.014317987000001864
ints,comprehension,process_time,0.017198323000002347
ints,comprehension,process_time,0.01565953600000114
ints,comprehension,process_time,0.013763980999996761
ints,comprehension,process_time,0.013216070999998664
ints,comprehension,process_time,0.013502875000000358
ints,comprehension,process_time,0.012797583000001111
ints,comprehension,process_time,0.013366777000001662
ints,comprehension,process_time,0.01335664600000186
ints,comprehension,process_time,0.013160350999999793
ints,comprehension,process_time,0.013405105000000361
ints,comprehension,process_time,0.012590490000000898
ints,comprehension,process_time,0.013265596000000102
ints,comprehension,process_time,0.013044742000001719
ints,comprehension,process_time,0.01282053599999955
ints,comprehension,process_time,0.012710172999998548
ints,comprehension,process_time,0.01275501199999951
ints,comprehension,process_time,0.012634682999998148
ints,comprehension,process_time,0.012624856999998713
ints,comprehension,process_time,0.012687945999999783
ints,comprehension,process_time,0.012812543000002563
ints,comprehension,process_time,0.012693352000002989
ints,comprehension,process_time,0.01275770499999851
ints,comprehension,process_time,0.013059881000000217
ints,comprehension,process_time,0.013003199999999993
ints,comprehension,process_time,0.013034928999999806
ints,comprehension,process_time,0.012777049000000318
ints,comprehension,process_time,0.012745184999999992
ints,comprehension,process_time,0.013724133000000194
ints,comprehension,process_time,0.013090412000000384
ints,comprehension,process_time,0.01325026600000001
ints,comprehension,process_time,0.012962904000001885
ints,comprehension,process_time,0.013688285000000633
ints,comprehension,process_time,0.012956211999998857
ints,comprehension,process_time,0.01287627800000024
ints,comprehension,process_time,0.012905934999999147
ints,comprehension,process_time,0.012865218999998262
ints,comprehension,process_time,0.012790170999998907
ints,comprehension,process_time,0.013399280000001568
ints,comprehension,process_time,0.01372481999999664
ints,comprehension,process_time,0.013086248000000467
ints,comprehension,process_time,0.01296071000000154
ints,comprehension,process_time,0.012774003999997063
ints,comprehension,process_time,0.013138481999998675
ints,comprehension,process_time,0.012666665000001132
ints,comprehension,process_time,0.012793007999999162
ints,comprehension,process_time,0.01305634499999897
ints,comprehension,process_time,0.01602699100000038
ints,comprehension,process_time,0.013782352999999858
ints,comprehension,process_time,0.013553949999998594
ints,comprehension,process_time,0.013522461999997404
ints,comprehension,process_time,0.013139500000001192
ints,comprehension,process_time,0.01312727099999833
ints,comprehension,process_time,0.012889569000002155
ints,comprehension,process_time,0.013000781999998878
ints,comprehension,process_time,0.01270363699999777
ints,comprehension,process_time,0.012735811000002428
ints,comprehension,process_time,0.01260994899999801
ints,comprehension,process_time,0.01264355800000061
ints,comprehension,process_time,0.012601753000001992
ints,comprehension,process_time,0.01280315600000037
ints,comprehension,process_time,0.012720978000000827
ints,comprehension,perf_counter,0.013007531990297139
ints,comprehension,perf_counter,0.01277314500475768
ints,comprehension,perf_counter,0.012592291997862048
ints,comprehension,perf_counter,0.012544301003799774
ints,comprehension,perf_counter,0.012595387001056224
ints,comprehension,perf_counter,0.012688845003140159
ints,comprehension,perf_counter,0.012501535995397717
ints,comprehension,perf_counter,0.012712278999970295
ints,comprehension,perf_counter,0.01271961499878671
ints,comprehension,perf_counter,0.01283640599285718
ints,comprehension,perf_counter,0.012531039988971315
ints,comprehension,perf_counter,0.012631064004381187
ints,comprehension,perf_counter,0.012548817001516
ints,comprehension,perf_counter,0.012787978004780598
ints,comprehension,perf_counter,0.021446699000080116
ints,comprehension,perf_counter,0.015071262008859776
ints,comprehension,perf_counter,0.013344092993065715
ints,comprehension,perf_counter,0.012993006006581709
ints,comprehension,perf_counter,0.013082495992421173
ints,comprehension,perf_counter,0.01392407200182788
ints,comprehension,perf_counter,0.012936639002873562
ints,comprehension,perf_counter,0.013382026998442598
ints,comprehension,perf_counter,0.012987434995011427
ints,comprehension,perf_counter,0.012857085996074602
ints,comprehension,perf_counter,0.01298884701100178
ints,comprehension,perf_counter,0.012853876993176527
ints,comprehension,perf_counter,0.013003455998841673
ints,comprehension,perf_counter,0.012687038994044997
ints,comprehension,perf_counter,0.013217785992310382
ints,comprehension,perf_counter,0.01327191999007482
ints,comprehension,perf_counter,0.013138973998138681
ints,comprehension,perf_counter,0.01277466600004118
ints,comprehension,perf_counter,0.012924427996040322
ints,comprehension,perf_counter,0.013072105997707695
ints,comprehension,perf_counter,0.013129065002431162
ints,comprehension,perf_counter,0.012750277004670352
ints,comprehension,perf_counter,0.013130567007465288
ints,comprehension,perf_counter,0.013320071986527182
ints,comprehension,perf_counter,0.013028318993747234
ints,comprehension,perf_counter,0.013018797995755449
ints,comprehension,perf_counter,0.012775730996509083
ints,comprehension,perf_counter,0.012856190995080397
ints,comprehension,perf_counter,0.012848255995777436
ints,comprehension,perf_counter,0.012693343989667483
ints,comprehension,perf_counter,0.013195052000810392
ints,comprehension,perf_counter,0.013015939999604598
ints,comprehension,perf_counter,0.01669614700949751
ints,comprehension,perf_counter,0.014008363999892026
ints,comprehension,perf_counter,0.013583722000475973
ints,comprehension,perf_counter,0.014156742006889544
ints,comprehension,perf_counter,0.014577164009097032
ints,comprehension,perf_counter,0.014885035998304375
ints,comprehension,perf_counter,0.014564376993803307
ints,comprehension,perf_counter,0.014348387005156837
ints,comprehension,perf_counter,0.017539059990667738
ints,comprehension,perf_counter,0.014233217996661551
ints,comprehension,perf_counter,0.01336502299818676
ints,comprehension,perf_counter,0.013191396006732248
ints,comprehension,perf_counter,0.01538647199049592
ints,comprehension,perf_counter,0.013569470000220463
ints,comprehension,perf_counter,0.013038743010838516
ints,comprehension,perf_counter,0.01340446699759923
ints,comprehension,perf_counter,0.013383608005824499
ints,comprehension,perf_counter,0.013315147996763699
ints,comprehension,perf_counter,0.013545478010200895
ints,comprehension,perf_counter,0.013913875009166077
ints,comprehension,perf_counter,0.013939896001829766
ints,comprehension,perf_counter,0.013696553010959178
ints,comprehension,perf_counter,0.01391205498657655
ints,comprehension,perf_counter,0.013453932988340966
ints,comprehension,perf_counter,0.01346555100462865
ints,comprehension,perf_counter,0.013372159999562427
ints,comprehension,perf_counter,0.013031021997448988
ints,comprehension,perf_counter,0.013905148996855132
ints,comprehension,perf_counter,0.013402650991338305
ints,comprehension,perf_counter,0.013300505001097918
ints,comprehension,perf_counter,0.013368833999265917
ints,comprehension,perf_counter,0.012829925006371923
ints,comprehension,perf_counter,0.01341828099975828
ints,comprehension,perf_counter,0.01343343900225591
ints,comprehension,perf_counter,0.013689979998162016
ints,comprehension,perf_counter,0.013245458991150372
ints,comprehension,perf_counter,0.01305823000438977
ints,comprehension,perf_counter,0.013303214989718981
ints,comprehension,perf_counter,0.013421630006632768
ints,comprehension,perf_counter,0.0133799039904261
ints,comprehension,perf_counter,0.013394710011198185
ints,comprehension,perf_counter,0.01345945498906076
ints,comprehension,perf_counter,0.013870348004275002
ints,comprehension,perf_counter,0.013636162999318913
ints,comprehension,perf_counter,0.013358593991142698
ints,comprehension,perf_counter,0.013198209999245591
ints,comprehension,perf_counter,0.013395283996942453
ints,comprehension,perf_counter,0.012703172003966756
ints,comprehension,perf_counter,0.013092552006128244
ints,comprehension,perf_counter,0.013404010998783633
ints,comprehension,perf_counter,0.013297882993356325
ints,comprehension,perf_counter,0.012710176000837237
ints,comprehension,perf_counter,0.012819748997571878
ints,comprehension,perf_counter,0.013331201000255533
strs,loop,time,0.007822990417480469
strs,loop,time,0.007648944854736328
strs,loop,time,0.007445812225341797
strs,loop,time,0.007913351058959961
strs,loop,time,0.007151126861572266
strs,loop,time,0.00778961181640625
strs,loop,time,0.007255077362060547
strs,loop,time,0.007807731628417969
strs,loop,time,0.007172107696533203
strs,loop,time,0.0073244571685791016
strs,loop,time,0.0075397491455078125
strs,loop,time,0.007140159606933594
strs,loop,time,0.007361888885498047
strs,loop,time,0.007565021514892578
strs,loop,time,0.007634878158569336
strs,loop,time,0.0073277950286865234
strs,loop,time,0.007344961166381836
strs,loop,time,0.007384777069091797
strs,loop,time,0.007600069046020508
strs,loop,time,0.0074787139892578125
strs,loop,time,0.007428169250488281
strs,loop,time,0.0074846744537353516
strs,loop,time,0.007106304168701172
strs,loop,time,0.007297992706298828
strs,loop,time,0.007353067398071289
strs,loop,time,0.007307767868041992
strs,loop,time,0.007295131683349609
strs,loop,time,0.007383823394775391
strs,loop,time,0.007498502731323242
strs,loop,time,0.007706403732299805
strs,loop,time,0.007428646087646484
strs,loop,time,0.007787942886352539
strs,loop,time,0.007355213165283203
strs,loop,time,0.007645368576049805
strs,loop,time,0.007333993911743164
strs,loop,time,0.008088350296020508
strs,loop,time,0.007490396499633789
strs,loop,time,0.007084846496582031
strs,loop,time,0.007457256317138672
strs,loop,time,0.007211923599243164
strs,loop,time,0.007402658462524414
strs,loop,time,0.007179975509643555
strs,loop,time,0.007490873336791992
strs,loop,time,0.007246255874633789
strs,loop,time,0.008246421813964844
strs,loop,time,0.00838470458984375
strs,loop,time,0.007406473159790039
strs,loop,time,0.0077533721923828125
strs,loop,time,0.007270097732543945
strs,loop,time,0.007546424865722656
strs,loop,time,0.007560014724731445
strs,loop,time,0.007570981979370117
strs,loop,time,0.007326841354370117
strs,loop,time,0.007323741912841797
strs,loop,time,0.007319211959838867
strs,loop,time,0.007126331329345703
strs,loop,time,0.007555246353149414
strs,loop,time,0.007313251495361328
strs,loop,time,0.007241964340209961
strs,loop,time,0.007143259048461914
strs,loop,time,0.0072405338287353516
strs,loop,time,0.007252931594848633
strs,loop,time,0.007106781005859375
strs,loop,time,0.007281303405761719
strs,loop,time,0.007264137268066406
strs,loop,time,0.007193326950073242
strs,loop,time,0.0071947574615478516
strs,loop,time,0.007194995880126953
strs,loop,time,0.007358551025390625
strs,loop,time,0.0071790218353271484
strs,loop,time,0.007272958755493164
strs,loop,time,0.007374286651611328
strs,loop,time,0.0074481964111328125
strs,loop,time,0.007251739501953125
strs,loop,time,0.00737762451171875
strs,loop,time,0.007540464401245117
strs,loop,time,0.007292747497558594
strs,loop,time,0.007345914840698242
strs,loop,time,0.007415056228637695
strs,loop,time,0.0076503753662109375
strs,loop,time,0.00726771354675293
strs,loop,time,0.0076045989990234375
strs,loop,time,0.007304191589355469
strs,loop,time,0.007457256317138672
strs,loop,time,0.007405281066894531
strs,loop,time,0.007888317108154297
strs,loop,time,0.0074350833892822266
strs,loop,time,0.0076787471771240234
strs,loop,time,0.007281780242919922
strs,loop,time,0.007361173629760742
strs,loop,time,0.007347583770751953
strs,loop,time,0.007174968719482422
strs,loop,time,0.0074176788330078125
strs,loop,time,0.007987022399902344
strs,loop,time,0.008063554763793945
strs,loop,time,0.007554054260253906
strs,loop,time,0.007884740829467773
strs,loop,time,0.007827997207641602
strs,loop,time,0.008098602294921875
strs,loop,time,0.007618904113769531
strs,loop,process_time,0.008112536999995257
strs,loop,process_time,0.008155483000003017
strs,loop,process_time,0.0076285630000043625
strs,loop,process_time,0.007278445000004297
strs,loop,process_time,0.007227268000001175
strs,loop,process_time,0.007496963999997774
strs,loop,process_time,0.0072909260000031395
strs,loop,process_time,0.007340755000001309
strs,loop,process_time,0.007274326000000997
strs,loop,process_time,0.007694512999997016
strs,loop,process_time,0.0075645869999974025
strs,loop,process_time,0.007795149000003221
strs,loop,process_time,0.007592747000003897
strs,loop,process_time,0.007472675999999012
strs,loop,process_time,0.007449311000002012
strs,loop,process_time,0.007376053999998078
strs,loop,process_time,0.0073358479999967585
strs,loop,process_time,0.0072254660000012905
strs,loop,process_time,0.00730356799999754
strs,loop,process_time,0.0074023350000018695
strs,loop,process_time,0.007362704000001941
strs,loop,process_time,0.0072598479999967935
strs,loop,process_time,0.007323282000001541
strs,loop,process_time,0.007479396000000804
strs,loop,process_time,0.007402550999998425
strs,loop,process_time,0.0071260179999939055
strs,loop,process_time,0.007262096999994583
strs,loop,process_time,0.007405749000000128
strs,loop,process_time,0.007377945000001773
strs,loop,process_time,0.007517475000000218
strs,loop,process_time,0.007541679999995665
strs,loop,process_time,0.007444183000004045
strs,loop,process_time,0.00732977700000248
strs,loop,process_time,0.00736724600000116
strs,loop,process_time,0.00732926999999961
strs,loop,process_time,0.007805034000000433
strs,loop,process_time,0.0072527869999987615
strs,loop,process_time,0.0075144919999985405
strs,loop,process_time,0.007289403999998001
strs,loop,process_time,0.007086690000001283
strs,loop,process_time,0.009742852000002244
strs,loop,process_time,0.008302808000003381
strs,loop,process_time,0.007747169999994696
strs,loop,process_time,0.007546515999997894
strs,loop,process_time,0.00716462900000181
strs,loop,process_time,0.007290253999997276
strs,loop,process_time,0.007379659000001482
strs,loop,process_time,0.008000148000000706
strs,loop,process_time,0.007758458000004964
strs,loop,process_time,0.008961214999999356
strs,loop,process_time,0.007577697999998634
strs,loop,process_time,0.0075137459999936596
strs,loop,process_time,0.007577683000000945
strs,loop,process_time,0.007261523000003933
strs,loop,process_time,0.007179706999998814
strs,loop,process_time,0.007421549999996557
strs,loop,process_time,0.007098102000000495
strs,loop,process_time,0.007203124999996646
strs,loop,process_time,0.0072097569999982625
strs,loop,process_time,0.00738063099999664
strs,loop,process_time,0.007213810999999737
strs,loop,process_time,0.007410576000005165
strs,loop,process_time,0.007499633000001893
strs,loop,process_time,0.0077635419999992905
strs,loop,process_time,0.007636838999999895
strs,loop,process_time,0.007782996999999625
strs,loop,process_time,0.007543603000002008
strs,loop,process_time,0.007953429999993489
strs,loop,process_time,0.00736603500000399
strs,loop,process_time,0.00732353200000091
strs,loop,process_time,0.007342347000005134
strs,loop,process_time,0.00720607399999551
strs,loop,process_time,0.007463091999994731
strs,loop,process_time,0.0073253719999968325
strs,loop,process_time,0.007287087999998221
strs,loop,process_time,0.007241675999999586
strs,loop,process_time,0.008227161000000649
strs,loop,process_time,0.008577694000003078
strs,loop,process_time,0.007717007000003662
strs,loop,process_time,0.00775230100000357
strs,loop,process_time,0.007668564999995908
strs,loop,process_time,0.007988792999995553
strs,loop,process_time,0.007601918999995405
strs,loop,process_time,0.00747502400000144
strs,loop,process_time,0.009022119999997358
strs,loop,process_time,0.00812023800000361
strs,loop,process_time,0.007804495999998551
strs,loop,process_time,0.007796180999996238
strs,loop,process_time,0.007401590000000624
strs,loop,process_time,0.00839836499999791
strs,loop,process_time,0.0078844400000051
strs,loop,process_time,0.007896537000000592
strs,loop,process_time,0.007585511999998573
strs,loop,process_time,0.007845920000001172
strs,loop,process_time,0.0076153609999991545
strs,loop,process_time,0.00755588800000595
strs,loop,process_time,0.007420318999997733
strs,loop,process_time,0.007286589999999649
strs,loop,process_time,0.007954861999998286
strs,loop,process_time,0.00732805999999897
strs,loop,perf_counter,0.008060210006078705
strs,loop,perf_counter,0.007700248999753967
strs,loop,perf_counter,0.008231336003518663
strs,loop,perf_counter,0.007545574000687338
strs,loop,perf_counter,0.008177547992090695
strs,loop,perf_counter,0.007308789994567633
strs,loop,perf_counter,0.008165118997567333
strs,loop,perf_counter,0.007097411988070235
strs,loop,perf_counter,0.008082727988949046
strs,loop,perf_counter,0.007227884998428635
strs,loop,perf_counter,0.008148447988787666
strs,loop,perf_counter,0.007133281993446872
strs,loop,perf_counter,0.007401037000818178
strs,loop,perf_counter,0.007853376009734347
strs,loop,perf_counter,0.007282705002580769
strs,loop,perf_counter,0.007845195010304451
strs,loop,perf_counter,0.007251686998642981
strs,loop,perf_counter,0.00785129600262735
strs,loop,perf_counter,0.007374437001999468
strs,loop,perf_counter,0.007605639999383129
strs,loop,perf_counter,0.007251420000102371
strs,loop,perf_counter,0.00775236300250981
strs,loop,perf_counter,0.0072043649997795
strs,loop,perf_counter,0.007320808988879435
strs,loop,perf_counter,0.007710584992310032
strs,loop,perf_counter,0.007291500995052047
strs,loop,perf_counter,0.007921851996798068
strs,loop,perf_counter,0.008069491988862865
strs,loop,perf_counter,0.008097692989395
strs,loop,perf_counter,0.0075195879908278584
strs,loop,perf_counter,0.007838785008061677
strs,loop,perf_counter,0.0074099219928029925
strs,loop,perf_counter,0.007906540995463729
strs,loop,perf_counter,0.007667857003980316
strs,loop,perf_counter,0.008012956997845322
strs,loop,perf_counter,0.007259548001457006
strs,loop,perf_counter,0.00780130599741824
strs,loop,perf_counter,0.00728760399215389
strs,loop,perf_counter,0.007573384005809203
strs,loop,perf_counter,0.007486807997338474
strs,loop,perf_counter,0.00759100700088311
strs,loop,perf_counter,0.008173248992534354
strs,loop,perf_counter,0.00749423100205604
strs,loop,perf_counter,0.007816112993168645
strs,loop,perf_counter,0.007417983011691831
strs,loop,perf_counter,0.007800033010425977
strs,loop,perf_counter,0.007209281990071759
strs,loop,perf_counter,0.007716652005910873
strs,loop,perf_counter,0.007257349003339186
strs,loop,perf_counter,0.007690582991926931
strs,loop,perf_counter,0.007609378997585736
strs,loop,perf_counter,0.007949644001200795
strs,loop,perf_counter,0.007512376003433019
strs,loop,perf_counter,0.00729008398775477
strs,loop,perf_counter,0.007962825999129564
strs,loop,perf_counter,0.007158697990234941
strs,loop,perf_counter,0.007800039995345287
strs,loop,perf_counter,0.0074425260099815205
strs,loop,perf_counter,0.007788299000822008
strs,loop,perf_counter,0.007243015003041364
strs,loop,perf_counter,0.007787525988533162
strs,loop,perf_counter,0.007381470000836998
strs,loop,perf_counter,0.0076569149969145656
strs,loop,perf_counter,0.007331107000936754
strs,loop,perf_counter,0.007650008992641233
strs,loop,perf_counter,0.007447510011843406
strs,loop,perf_counter,0.008592016994953156
strs,loop,perf_counter,0.008742107995203696
strs,loop,perf_counter,0.008505101999617182
strs,loop,perf_counter,0.007882263991632499
strs,loop,perf_counter,0.008447340005659498
strs,loop,perf_counter,0.007905571008450352
strs,loop,perf_counter,0.008780352000030689
strs,loop,perf_counter,0.011268488990026526
strs,loop,perf_counter,0.008849548001307994
strs,loop,perf_counter,0.008850423007970676
strs,loop,perf_counter,0.008793194996542297
strs,loop,perf_counter,0.008090460003586486
strs,loop,perf_counter,0.007654821005417034
strs,loop,perf_counter,0.00740274898998905
strs,loop,perf_counter,0.007636718000867404
strs,loop,perf_counter,0.007851071990444325
strs,loop,perf_counter,0.007368015998508781
strs,loop,perf_counter,0.007213513003080152
strs,loop,perf_counter,0.007397830006084405
strs,loop,perf_counter,0.0072652700036996976
strs,loop,perf_counter,0.0072016119956970215
strs,loop,perf_counter,0.0073929280042648315
strs,loop,perf_counter,0.007258851997903548
strs,loop,perf_counter,0.007263757011969574
strs,loop,perf_counter,0.007589361994178034
strs,loop,perf_counter,0.00788093799201306
strs,loop,perf_counter,0.007293752001714893
strs,loop,perf_counter,0.007577159005450085
strs,loop,perf_counter,0.007412688995827921
strs,loop,perf_counter,0.0076778350048698485
strs,loop,perf_counter,0.007321347002289258
strs,loop,perf_counter,0.0072107500018319115
strs,loop,perf_counter,0.007271224996657111
strs,loop,perf_counter,0.007364132005022839
strs,comprehension,time,0.004443645477294922
strs,comprehension,time,0.0046575069427490234
strs,comprehension,time,0.004561185836791992
strs,comprehension,time,0.004680633544921875
strs,comprehension,time,0.004416704177856445
strs,comprehension,time,0.0044095516204833984
strs,comprehension,time,0.004646778106689453
strs,comprehension,time,0.005292415618896484
strs,comprehension,time,0.005231618881225586
strs,comprehension,time,0.004557371139526367
strs,comprehension,time,0.0044155120849609375
strs,comprehension,time,0.004656553268432617
strs,comprehension,time,0.004573345184326172
strs,comprehension,time,0.004401683807373047
strs,comprehension,time,0.0047855377197265625
strs,comprehension,time,0.005756378173828125
strs,comprehension,time,0.004511594772338867
strs,comprehension,time,0.0042552947998046875
strs,comprehension,time,0.004561185836791992
strs,comprehension,time,0.004387378692626953
strs,comprehension,time,0.004308938980102539
strs,comprehension,time,0.004581451416015625
strs,comprehension,time,0.004317283630371094
strs,comprehension,time,0.0046083927154541016
strs,comprehension,time,0.00433039665222168
strs,comprehension,time,0.004353761672973633
strs,comprehension,time,0.005133867263793945
strs,comprehension,time,0.0047605037689208984
strs,comprehension,time,0.004711151123046875
strs,comprehension,time,0.004591464996337891
strs,comprehension,time,0.004931211471557617
strs,comprehension,time,0.004548788070678711
strs,comprehension,time,0.004414558410644531
strs,comprehension,time,0.004509925842285156
strs,comprehension,time,0.004390716552734375
strs,comprehension,time,0.0044040679931640625
strs,comprehension,time,0.004465579986572266
strs,comprehension,time,0.00437164306640625
strs,comprehension,time,0.004403352737426758
strs,comprehension,time,0.0044443607330322266
strs,comprehension,time,0.004271030426025391
strs,comprehension,time,0.004424571990966797
strs,comprehension,time,0.004364490509033203
strs,comprehension,time,0.004334211349487305
strs,comprehension,time,0.004603862762451172
strs,comprehension,time,0.0044710636138916016
strs,comprehension,time,0.004468679428100586
strs,comprehension,time,0.004568576812744141
strs,comprehension,time,0.004782438278198242
strs,comprehension,time,0.004544973373413086
strs,comprehension,time,0.006360292434692383
strs,comprehension,time,0.004833698272705078
strs,comprehension,time,0.004824399948120117
strs,comprehension,time,0.004664421081542969
strs,comprehension,time,0.005015850067138672
strs,comprehension,time,0.00451970100402832
strs,comprehension,time,0.00469517707824707
strs,comprehension,time,0.0043566226959228516
strs,comprehension,time,0.004421234130859375
strs,comprehension,time,0.00431513786315918
strs,comprehension,time,0.004202842712402344
strs,comprehension,time,0.004556894302368164
strs,comprehension,time,0.004755258560180664
strs,comprehension,time,0.004342317581176758
strs,comprehension,time,0.004279136657714844
strs,comprehension,time,0.004489421844482422
strs,comprehension,time,0.004434347152709961
strs,comprehension,time,0.004371166229248047
strs,comprehension,time,0.004328489303588867
strs,comprehension,time,0.004473447799682617
strs,comprehension,time,0.004340171813964844
strs,comprehension,time,0.006402254104614258
strs,comprehension,time,0.004446268081665039
strs,comprehension,time,0.004380702972412109
strs,comprehension,time,0.00448155403137207
strs,comprehension,time,0.004248857498168945
strs,comprehension,time,0.004422426223754883
strs,comprehension,time,0.0044133663177490234
strs,comprehension,time,0.0043735504150390625
strs,comprehension,time,0.004338502883911133
strs,comprehension,time,0.004400491714477539
strs,comprehension,time,0.004379987716674805
strs,comprehension,time,0.004206657409667969
strs,comprehension,time,0.004488468170166016
strs,comprehension,time,0.004197835922241211
strs,comprehension,time,0.004361867904663086
strs,comprehension,time,0.004397153854370117
strs,comprehension,time,0.0045888423919677734
strs,comprehension,time,0.004469394683837891
strs,comprehension,time,0.004376888275146484
strs,comprehension,time,0.004421710968017578
strs,comprehension,time,0.004216432571411133
strs,comprehension,time,0.004397869110107422
strs,comprehension,time,0.00442194938659668
strs,comprehension,time,0.004286766052246094
strs,comprehension,time,0.00462651252746582
strs,comprehension,time,0.004948616027832031
strs,comprehension,time,0.005518674850463867
strs,comprehension,time,0.005831718444824219
strs,comprehension,time,0.0074388980865478516
strs,comprehension,process_time,0.006190974000006122
strs,comprehension,process_time,0.008561147999998298
strs,comprehension,process_time,0.004941056999996363
strs,comprehension,process_time,0.005117372999997372
strs,comprehension,process_time,0.004813290000001302
strs,comprehension,process_time,0.0049369219999988445
strs,comprehension,process_time,0.004810960999996894
strs,comprehension,process_time,0.004772606999999596
strs,comprehension,process_time,0.004673163999996177
strs,comprehension,process_time,0.004764328000000262
strs,comprehension,process_time,0.0050391039999979625
strs,comprehension,process_time,0.005731932999999856
strs,comprehension,process_time,0.00814247599999618
strs,comprehension,process_time,0.005012419000003376
strs,comprehension,process_time,0.0051453389999949195
strs,comprehension,process_time,0.00720666600000186
strs,comprehension,process_time,0.005732897999997988
strs,comprehension,process_time,0.00465662799999933
strs,comprehension,process_time,0.004625371999999572
strs,comprehension,process_time,0.004543290999997396
strs,comprehension,process_time,0.0043034780000041906
strs,comprehension,process_time,0.0046052520000046115
strs,comprehension,process_time,0.004349646999997958
strs,comprehension,process_time,0.004347585999994408
strs,comprehension,process_time,0.00427150700000567
strs,comprehension,process_time,0.004398108000003731
strs,comprehension,process_time,0.004435747999998796
strs,comprehension,process_time,0.004336173000005772
strs,comprehension,process_time,0.004539137000001858
strs,comprehension,process_time,0.004276771000000679
strs,comprehension,process_time,0.004416776999995875
strs,comprehension,process_time,0.004335507999996935
strs,comprehension,process_time,0.00439495999999906
strs,comprehension,process_time,0.004420721999998989
strs,comprehension,process_time,0.004398592999997675
strs,comprehension,process_time,0.004399670000005074
strs,comprehension,process_time,0.004347285999998007
strs,comprehension,process_time,0.004385231999997075
strs,comprehension,process_time,0.004361172999999496
strs,comprehension,process_time,0.004432018999999343
strs,comprehension,process_time,0.004265164999999627
strs,comprehension,process_time,0.004223238999998102
strs,comprehension,process_time,0.004442068999999549
strs,comprehension,process_time,0.004298620999996672
strs,comprehension,process_time,0.004308019999996304
strs,comprehension,process_time,0.004352406000002418
strs,comprehension,process_time,0.004520007000003545
strs,comprehension,process_time,0.004472127999996189
strs,comprehension,process_time,0.004651002000002791
strs,comprehension,process_time,0.004329302000002144
strs,comprehension,process_time,0.004485995999999659
strs,comprehension,process_time,0.0045095580000023006
strs,comprehension,process_time,0.004504227000005301
strs,comprehension,process_time,0.004468315000003997
strs,comprehension,process_time,0.004552584000002469
strs,comprehension,process_time,0.004448314000001119
strs,comprehension,process_time,0.004546716999996647
strs,comprehension,process_time,0.004810825999996382
strs,comprehension,process_time,0.005914054999998086
strs,comprehension,process_time,0.004380533999999159
strs,comprehension,process_time,0.004601443000005645
strs,comprehension,process_time,0.004536051999998847
strs,comprehension,process_time,0.004384872000002815
strs,comprehension,process_time,0.004591165999997315
strs,comprehension,process_time,0.004511059999998679
strs,comprehension,process_time,0.004454718999994611
strs,comprehension,process_time,0.004385031000005313
strs,comprehension,process_time,0.004509454000000801
strs,comprehension,process_time,0.004217193000002339
strs,comprehension,process_time,0.00462015699999796
strs,comprehension,process_time,0.004351931999998726
strs,comprehension,process_time,0.004737684000005515
strs,comprehension,process_time,0.004218063999999799
strs,comprehension,process_time,0.004676280000005306
strs,comprehension,process_time,0.0043122550000020965
strs,comprehension,process_time,0.006569679999998357
strs,comprehension,process_time,0.004590715999995609
strs,comprehension,process_time,0.004775012999999717
strs,comprehension,process_time,0.004270120000001043
strs,comprehension,process_time,0.004544014000003926
strs,comprehension,process_time,0.004529804000000581
strs,comprehension,process_time,0.004565087000003132
strs,comprehension,process_time,0.004463350000001753
strs,comprehension,process_time,0.00452569800000191
strs,comprehension,process_time,0.004516105999996967
strs,comprehension,process_time,0.004426675999994245
strs,comprehension,process_time,0.004368451000004825
strs,comprehension,process_time,0.004427081000002886
strs,comprehension,process_time,0.004384561999998482
strs,comprehension,process_time,0.004545296999999948
strs,comprehension,process_time,0.004248459000002924
strs,comprehension,process_time,0.004756843000002675
strs,comprehension,process_time,0.004798443000005648
strs,comprehension,process_time,0.004909421000000691
strs,comprehension,process_time,0.004869391999996253
strs,comprehension,process_time,0.005055061000000194
strs,comprehension,process_time,0.004621461000006377
strs,comprehension,process_time,0.004722250999996902
strs,comprehension,process_time,0.004403805999999122
strs,comprehension,process_time,0.004872677000001602
strs,comprehension,perf_counter,0.004311463009798899
strs,comprehension,perf_counter,0.0046489950036630034
strs,comprehension,perf_counter,0.004685331994551234
strs,comprehension,perf_counter,0.005042871998739429
strs,comprehension,perf_counter,0.004552918995614164
strs,comprehension,perf_counter,0.00465336001070682
strs,comprehension,perf_counter,0.0048378200008301064
strs,comprehension,perf_counter,0.00434749000123702
strs,comprehension,perf_counter,0.004519797003013082
strs,comprehension,perf_counter,0.00460716598900035
strs,comprehension,perf_counter,0.004551692007225938
strs,comprehension,perf_counter,0.0043491599935805425
strs,comprehension,perf_counter,0.004553423001198098
strs,comprehension,perf_counter,0.004783796000992879
strs,comprehension,perf_counter,0.004379411999252625
strs,comprehension,perf_counter,0.005055319998064078
strs,comprehension,perf_counter,0.004518827001447789
strs,comprehension,perf_counter,0.0051883109990740195
strs,comprehension,perf_counter,0.0052536250004777685
strs,comprehension,perf_counter,0.004542189999483526
strs,comprehension,perf_counter,0.004604101006407291
strs,comprehension,perf_counter,0.004757907998282462
strs,comprehension,perf_counter,0.004260526009602472
strs,comprehension,perf_counter,0.004522932998952456
strs,comprehension,perf_counter,0.004743186989799142
strs,comprehension,perf_counter,0.004344195011071861
strs,comprehension,perf_counter,0.004505321994656697
strs,comprehension,perf_counter,0.004575708997435868
strs,comprehension,perf_counter,0.004523801006143913
strs,comprehension,perf_counter,0.004333548989961855
strs,comprehension,perf_counter,0.004652595001971349
strs,comprehension,perf_counter,0.004286973999114707
strs,comprehension,perf_counter,0.004574141988996416
strs,comprehension,perf_counter,0.004491276005865075
strs,comprehension,perf_counter,0.004429115011589602
strs,comprehension,perf_counter,0.004732285000500269
strs,comprehension,perf_counter,0.004426551007782109
strs,comprehension,perf_counter,0.004534074003458954
strs,comprehension,perf_counter,0.004278275999240577
strs,comprehension,perf_counter,0.0046210889995563775
strs,comprehension,perf_counter,0.004308786999899894
strs,comprehension,perf_counter,0.004671449001762085
strs,comprehension,perf_counter,0.004867337993346155
strs,comprehension,perf_counter,0.004757881004479714
strs,comprehension,perf_counter,0.005234940996160731
strs,comprehension,perf_counter,0.004863909998675808
strs,comprehension,perf_counter,0.005524649008293636
strs,comprehension,perf_counter,0.005132834005053155
strs,comprehension,perf_counter,0.005219179001869634
strs,comprehension,perf_counter,0.0049843529995996505
strs,comprehension,perf_counter,0.005126151998410933
strs,comprehension,perf_counter,0.0049953419947996736
strs,comprehension,perf_counter,0.005019075004383922
strs,comprehension,perf_counter,0.005081715993583202
strs,comprehension,perf_counter,0.0052935109997633845
strs,comprehension,perf_counter,0.005124457005877048
strs,comprehension,perf_counter,0.005477501996210776
strs,comprehension,perf_counter,0.005136904001119547
strs,comprehension,perf_counter,0.005753491001087241
strs,comprehension,perf_counter,0.0059067539987154305
strs,comprehension,perf_counter,0.005366989003960043
strs,comprehension,perf_counter,0.00505001399142202
strs,comprehension,perf_counter,0.00465421199623961
strs,comprehension,perf_counter,0.004520387010416016
strs,comprehension,perf_counter,0.004278232008800842
strs,comprehension,perf_counter,0.005015679998905398
strs,comprehension,perf_counter,0.004392418995848857
strs,comprehension,perf_counter,0.004241771006491035
strs,comprehension,perf_counter,0.004493343003559858
strs,comprehension,perf_counter,0.004727221006760374
strs,comprehension,perf_counter,0.004409941000631079
strs,comprehension,perf_counter,0.004282601003069431
strs,comprehension,perf_counter,0.004938406011206098
strs,comprehension,perf_counter,0.0042792500025825575
strs,comprehension,perf_counter,0.004501208997680806
strs,comprehension,perf_counter,0.004456859998754226
strs,comprehension,perf_counter,0.004657484998460859
strs,comprehension,perf_counter,0.004614315999788232
strs,comprehension,perf_counter,0.004328954993980005
strs,comprehension,perf_counter,0.004889994001132436
strs,comprehension,perf_counter,0.0044061650114599615
strs,comprehension,perf_counter,0.004516373010119423
strs,comprehension,perf_counter,0.00423355599923525
strs,comprehension,perf_counter,0.004847268006415106
strs,comprehension,perf_counter,0.00444126600632444
strs,comprehension,perf_counter,0.004269875993486494
strs,comprehension,perf_counter,0.004366446999483742
strs,comprehension,perf_counter,0.004829129000427201
strs,comprehension,perf_counter,0.004393316994537599
strs,comprehension,perf_counter,0.004269400000339374
strs,comprehension,perf_counter,0.004835407002246939
strs,comprehension,perf_counter,0.0042705100058810785
strs,comprehension,perf_counter,0.00443697499576956
strs,comprehension,perf_counter,0.004348966991528869
strs,comprehension,perf_counter,0.005010302003938705
strs,comprehension,perf_counter,0.004510033002588898
strs,comprehension,perf_counter,0.004774388013174757
strs,comprehension,perf_counter,0.0047613369970349595
strs,comprehension,perf_counter,0.004515351000009105
strs,comprehension,perf_counter,0.004571871002553962
